{
	"parent": "block/stairs",
	"credit": "Made with Blockbench",
	"textures": {
		"0": "block/anvil",
		"1": "block/iron_block",
		"2": "block/cauldron_side",
		"3": "block/stone",
		"particle": "block/iron_block"
	},
	"elements": [
		{
			"name": "base",
			"from": [1, 0, 1],
			"to": [15, 1, 15],
			"faces": {
				"north": {"uv": [1, 0, 15, 1], "texture": "#3"},
				"east": {"uv": [15, 1, 16, 15], "rotation": 90, "texture": "#3"},
				"south": {"uv": [1, 15, 15, 16], "texture": "#3"},
				"west": {"uv": [0, 1, 1, 15], "rotation": 270, "texture": "#3"},
				"up": {"uv": [1, 1, 15, 15], "rotation": 90, "texture": "#3"},
				"down": {"uv": [1, 1, 15, 15], "rotation": 90, "texture": "#3"}
			}
		},
		{
			"name": "microscope_support",
			"from": [11.5, 1, 7],
			"to": [12.5, 10, 9],
			"faces": {
				"north": {"uv": [0, 5, 1, 14], "texture": "#1"},
				"east": {"uv": [1, 1, 3, 10], "texture": "#1"},
				"south": {"uv": [0, 5, 1, 14], "texture": "#1"},
				"west": {"uv": [1, 1, 3, 10], "texture": "#1"}
			}
		},
		{
			"name": "microscope_neck_1",
			"from": [11.5, 10, 7],
			"to": [12.5, 13, 9],
			"rotation": {"angle": 45, "axis": "z", "origin": [12.5, 10, 8]},
			"faces": {
				"north": {"uv": [0, 1, 1, 4], "texture": "#1"},
				"east": {"uv": [11, 2, 13, 5], "texture": "#1"},
				"south": {"uv": [0, 1, 1, 4], "texture": "#1"},
				"west": {"uv": [11, 2, 13, 5], "texture": "#1"}
			}
		},
		{
			"name": "microscope_neck_2",
			"from": [9.375, 11.375, 7],
			"to": [10.375, 12.125, 9],
			"faces": {
				"north": {"uv": [10, 3, 11, 3.75], "texture": "#1"},
				"east": {"uv": [4, 0, 6, 0.75], "texture": "#1"},
				"south": {"uv": [10, 3, 11, 3.75], "texture": "#1"},
				"up": {"uv": [15, 2, 16, 4], "texture": "#1"},
				"down": {"uv": [15, 2, 16, 4], "texture": "#1"}
			}
		},
		{
			"name": "microscope_center",
			"from": [6.5, 10.75, 6.5],
			"to": [9.5, 12.75, 9.5],
			"faces": {
				"north": {"uv": [1, 7, 4, 9], "texture": "#1"},
				"east": {"uv": [1, 7, 4, 9], "texture": "#1"},
				"south": {"uv": [1, 7, 4, 9], "texture": "#1"},
				"west": {"uv": [1, 7, 4, 9], "texture": "#1"},
				"up": {"uv": [2, 6, 5, 9], "texture": "#1"},
				"down": {"uv": [10, 7, 13, 10], "texture": "#1"}
			}
		},
		{
			"name": "microscope_table",
			"from": [5.5, 3.75, 5.5],
			"to": [10.5, 4.75, 10.5],
			"faces": {
				"north": {"uv": [10, 1, 15, 2], "texture": "#2"},
				"east": {"uv": [10, 1, 15, 2], "texture": "#2"},
				"south": {"uv": [10, 1, 15, 2], "texture": "#2"},
				"west": {"uv": [10, 1, 15, 2], "texture": "#2"},
				"up": {"uv": [5, 0, 10, 5], "rotation": 90, "texture": "#2"},
				"down": {"uv": [3, 4, 8, 9], "texture": "#2"}
			}
		},
		{
			"name": "microscope_table_connect",
			"from": [10.5, 4, 7],
			"to": [11.5, 4.5, 9],
			"faces": {
				"north": {"uv": [0, 0, 1, 0.5], "texture": "#1"},
				"south": {"uv": [0, 0, 1, 0.5], "texture": "#1"},
				"up": {"uv": [0, 0, 1, 2], "texture": "#1"},
				"down": {"uv": [0, 0, 1, 2], "texture": "#1"}
			}
		},
		{
			"name": "microscope_magnifier_1",
			"from": [7.5, 9.75, 6.75],
			"to": [8.5, 10.75, 7.75],
			"faces": {
				"north": {"uv": [5, 0, 6, 1], "texture": "#0"},
				"east": {"uv": [5, 0, 6, 1], "texture": "#0"},
				"south": {"uv": [5, 0, 6, 1], "texture": "#0"},
				"west": {"uv": [5, 0, 6, 1], "texture": "#0"},
				"down": {"uv": [9, 0, 10, 1], "texture": "#0"}
			}
		},
		{
			"name": "microscope_magnifier_2",
			"from": [7.5, 9.75, 8.25],
			"to": [8.5, 10.75, 9.25],
			"faces": {
				"north": {"uv": [5, 0, 6, 1], "texture": "#0"},
				"east": {"uv": [5, 0, 6, 1], "texture": "#0"},
				"south": {"uv": [5, 0, 6, 1], "texture": "#0"},
				"west": {"uv": [5, 0, 6, 1], "texture": "#0"},
				"down": {"uv": [9, 0, 10, 1], "texture": "#0"}
			}
		},
		{
			"name": "microscope_eye_1",
			"from": [7.5, 12.75, 6.75],
			"to": [8.5, 16.75, 7.75],
			"rotation": {"angle": 45, "axis": "z", "origin": [8.5, 12.75, 7.25]},
			"faces": {
				"north": {"uv": [6, 5, 7, 9], "texture": "#0"},
				"east": {"uv": [2, 5, 3, 9], "texture": "#0"},
				"south": {"uv": [10, 4, 11, 8], "texture": "#0"},
				"west": {"uv": [15, 4, 16, 8], "texture": "#0"},
				"up": {"uv": [0, 11, 1, 12], "texture": "#0"}
			}
		},
		{
			"name": "microscope_eye_2",
			"from": [7.5, 12.75, 8.25],
			"to": [8.5, 16.75, 9.25],
			"rotation": {"angle": 45, "axis": "z", "origin": [8.5, 12.75, 8.75]},
			"faces": {
				"north": {"uv": [6, 5, 7, 9], "texture": "#0"},
				"east": {"uv": [2, 5, 3, 9], "texture": "#0"},
				"south": {"uv": [10, 4, 11, 8], "texture": "#0"},
				"west": {"uv": [15, 4, 16, 8], "texture": "#0"},
				"up": {"uv": [0, 11, 1, 12], "texture": "#0"}
			}
		},
		{
			"name": "solder_base",
			"from": [7, 1, 3],
			"to": [8, 9, 4],
			"faces": {
				"north": {"uv": [11, 4, 12, 11], "texture": "#0"},
				"east": {"uv": [11, 4, 12, 11], "texture": "#0"},
				"south": {"uv": [11, 4, 12, 11], "texture": "#0"},
				"west": {"uv": [11, 4, 12, 11], "texture": "#0"}
			}
		},
		{
			"name": "solder_joint_1",
			"from": [6.75, 8.5, 2.75],
			"to": [8.25, 10, 4.25],
			"faces": {
				"north": {"uv": [9, 1, 12, 4], "texture": "#0"},
				"east": {"uv": [9, 1, 12, 4], "texture": "#0"},
				"south": {"uv": [9, 1, 12, 4], "texture": "#0"},
				"west": {"uv": [9, 1, 12, 4], "texture": "#0"},
				"up": {"uv": [9, 1, 12, 4], "texture": "#0"},
				"down": {"uv": [9, 1, 12, 4], "texture": "#0"}
			}
		},
		{
			"name": "solder_handle",
			"from": [7, 9.75, 4],
			"to": [8, 10.75, 6],
			"rotation": {"angle": 45, "axis": "x", "origin": [7, 10, 4.25]},
			"faces": {
				"north": {"uv": [1, 2, 3, 4], "texture": "#0"},
				"east": {"uv": [2, 0, 6, 2], "texture": "#0"},
				"west": {"uv": [2, 0, 6, 2], "texture": "#0"},
				"up": {"uv": [2, 0, 6, 2], "rotation": 90, "texture": "#0"},
				"down": {"uv": [2, 0, 6, 2], "rotation": 270, "texture": "#0"}
			}
		},
		{
			"name": "solder_grip",
			"from": [6.75, 9.5, 6],
			"to": [8.25, 11, 8],
			"rotation": {"angle": 45, "axis": "x", "origin": [7, 10, 4.25]},
			"faces": {
				"north": {"uv": [0, 0, 3, 3], "texture": "#0"},
				"east": {"uv": [3, 0, 7, 3], "texture": "#0"},
				"south": {"uv": [0, 0, 3, 3], "texture": "#0"},
				"west": {"uv": [3, 0, 7, 3], "texture": "#0"},
				"up": {"uv": [3, 0, 7, 3], "rotation": 90, "texture": "#0"},
				"down": {"uv": [3, 0, 7, 3], "rotation": 270, "texture": "#0"}
			}
		},
		{
			"name": "solder_handle",
			"from": [7.25, 10, 8],
			"to": [7.75, 10.5, 9.5],
			"rotation": {"angle": 45, "axis": "x", "origin": [7, 10, 4.25]},
			"faces": {
				"east": {"uv": [5, 3, 8, 4], "texture": "#3"},
				"south": {"uv": [5, 3, 6, 4], "texture": "#3"},
				"west": {"uv": [5, 3, 8, 4], "texture": "#3"},
				"up": {"uv": [5, 3, 8, 4], "rotation": 90, "texture": "#3"},
				"down": {"uv": [5, 3, 8, 4], "rotation": 270, "texture": "#3"}
			}
		}
	]
}