{
	"parent": "idkmod:item/quest_board",
	"elements": [
		{
			"name": "right_leg",
			"from": [10, 0, 7],
			"to": [12, 13, 9],
			"rotation": {"angle": 0, "axis": "y", "origin": [16, 8, 15]},
			"faces": {
				"north": {"uv": [1, 3, 3, 16], "texture": "#0"},
				"east": {"uv": [1, 3, 3, 16], "texture": "#0"},
				"south": {"uv": [1, 3, 3, 16], "texture": "#0"},
				"west": {"uv": [1, 3, 3, 16], "texture": "#0"},
				"down": {"uv": [6, 9, 8, 11], "texture": "#0"}
			}
		}
	]
}