{
	"credit": "Made with Blockbench",
	"textures": {
		"0": "block/diamond_block",
		"1": "block/gold_block",
		"particle": "block/diamond_block"
	},
	"elements": [
		{
			"name": "left_bottom",
			"from": [0, 0, 1],
			"to": [1, 1, 15],
			"faces": {
				"east": {"uv": [1, 8, 15, 9], "texture": "#0"},
				"west": {"uv": [1, 3, 15, 4], "texture": "#0"},
				"up": {"uv": [3, 1, 4, 15], "texture": "#0"},
				"down": {"uv": [5, 1, 6, 15], "texture": "#0"}
			}
		},
		{
			"name": "right_bottom",
			"from": [15, 0, 1],
			"to": [16, 1, 15],
			"faces": {
				"east": {"uv": [1, 5, 15, 6], "texture": "#0"},
				"west": {"uv": [1, 5, 15, 6], "texture": "#0"},
				"up": {"uv": [5, 1, 6, 15], "texture": "#0"},
				"down": {"uv": [11, 1, 12, 15], "texture": "#0"}
			}
		},
		{
			"name": "left_top",
			"from": [0, 15, 1],
			"to": [1, 16, 15],
			"faces": {
				"east": {"uv": [1, 5, 15, 6], "texture": "#0"},
				"west": {"uv": [1, 5, 15, 6], "texture": "#0"},
				"up": {"uv": [11, 1, 12, 15], "texture": "#0"},
				"down": {"uv": [5, 1, 6, 15], "texture": "#0"}
			}
		},
		{
			"name": "right_top",
			"from": [15, 15, 1],
			"to": [16, 16, 15],
			"faces": {
				"east": {"uv": [1, 9, 15, 10], "texture": "#0"},
				"west": {"uv": [1, 5, 15, 6], "texture": "#0"},
				"up": {"uv": [4, 1, 5, 15], "texture": "#0"},
				"down": {"uv": [3, 1, 4, 15], "texture": "#0"}
			}
		},
		{
			"name": "front_bottom",
			"from": [1, 0, 0],
			"to": [15, 1, 1],
			"faces": {
				"north": {"uv": [1, 6, 15, 7], "texture": "#0"},
				"south": {"uv": [1, 1, 15, 2], "texture": "#0"},
				"up": {"uv": [1, 6, 15, 7], "texture": "#0"},
				"down": {"uv": [1, 4, 15, 5], "texture": "#0"}
			}
		},
		{
			"name": "back_bottom",
			"from": [1, 0, 15],
			"to": [15, 1, 16],
			"faces": {
				"north": {"uv": [1, 6, 15, 7], "texture": "#0"},
				"south": {"uv": [1, 1, 15, 2], "texture": "#0"},
				"up": {"uv": [1, 6, 15, 7], "texture": "#0"},
				"down": {"uv": [1, 4, 15, 5], "texture": "#0"}
			}
		},
		{
			"name": "front_top",
			"from": [1, 15, 0],
			"to": [15, 16, 1],
			"faces": {
				"north": {"uv": [1, 6, 15, 7], "texture": "#0"},
				"south": {"uv": [1, 1, 15, 2], "texture": "#0"},
				"up": {"uv": [1, 6, 15, 7], "texture": "#0"},
				"down": {"uv": [1, 4, 15, 5], "texture": "#0"}
			}
		},
		{
			"name": "back_top",
			"from": [1, 15, 15],
			"to": [15, 16, 16],
			"faces": {
				"north": {"uv": [1, 6, 15, 7], "texture": "#0"},
				"south": {"uv": [1, 1, 15, 2], "texture": "#0"},
				"up": {"uv": [1, 6, 15, 7], "texture": "#0"},
				"down": {"uv": [1, 4, 15, 5], "texture": "#0"}
			}
		},
		{
			"name": "front_left_corner",
			"from": [0, 0, 0],
			"to": [1, 16, 1],
			"faces": {
				"north": {"uv": [0, 0, 1, 16], "texture": "#0"},
				"east": {"uv": [1, 0, 2, 16], "texture": "#0"},
				"south": {"uv": [3, 0, 4, 16], "texture": "#0"},
				"west": {"uv": [12, 0, 13, 16], "texture": "#0"},
				"up": {"uv": [0, 0, 1, 1], "texture": "#0"},
				"down": {"uv": [0, 0, 1, 1], "texture": "#0"}
			}
		},
		{
			"name": "front_left_corner",
			"from": [0, 0, 15],
			"to": [1, 16, 16],
			"faces": {
				"north": {"uv": [1, 0, 2, 16], "texture": "#0"},
				"east": {"uv": [3, 0, 4, 16], "texture": "#0"},
				"south": {"uv": [12, 0, 13, 16], "texture": "#0"},
				"west": {"uv": [0, 0, 1, 16], "texture": "#0"},
				"up": {"uv": [0, 0, 1, 1], "texture": "#0"},
				"down": {"uv": [0, 0, 1, 1], "texture": "#0"}
			}
		},
		{
			"name": "front_right_corner",
			"from": [15, 0, 0],
			"to": [16, 16, 1],
			"faces": {
				"north": {"uv": [12, 0, 13, 16], "texture": "#0"},
				"east": {"uv": [0, 0, 1, 16], "texture": "#0"},
				"south": {"uv": [1, 0, 2, 16], "texture": "#0"},
				"west": {"uv": [3, 0, 4, 16], "texture": "#0"},
				"up": {"uv": [0, 0, 1, 1], "texture": "#0"},
				"down": {"uv": [0, 0, 1, 1], "texture": "#0"}
			}
		},
		{
			"name": "back_right_corner",
			"from": [15, 0, 15],
			"to": [16, 16, 16],
			"faces": {
				"north": {"uv": [3, 0, 4, 16], "texture": "#0"},
				"east": {"uv": [12, 0, 13, 16], "texture": "#0"},
				"south": {"uv": [0, 0, 1, 16], "texture": "#0"},
				"west": {"uv": [1, 0, 2, 16], "texture": "#0"},
				"up": {"uv": [0, 0, 1, 1], "texture": "#0"},
				"down": {"uv": [0, 0, 1, 1], "texture": "#0"}
			}
		},
		{
			"name": "bottom_inert",
			"from": [7, 0.5, 7],
			"to": [9, 6.5, 9],
			"faces": {
				"north": {"uv": [1, 9, 3, 15], "texture": "#1"},
				"east": {"uv": [10, 9, 12, 15], "texture": "#1"},
				"south": {"uv": [7, 9, 9, 15], "texture": "#1"},
				"west": {"uv": [4, 9, 6, 15], "texture": "#1"},
				"up": {"uv": [13, 10, 15, 12], "texture": "#1"},
				"down": {"uv": [1, 9, 3, 11], "texture": "#1"}
			}
		},
		{
			"name": "top_inert",
			"from": [7, 9.5, 7],
			"to": [9, 15.5, 9],
			"faces": {
				"north": {"uv": [11, 1, 13, 7], "texture": "#1"},
				"east": {"uv": [6, 1, 8, 7], "texture": "#1"},
				"south": {"uv": [8, 1, 10, 7], "texture": "#1"},
				"west": {"uv": [3, 1, 5, 7], "texture": "#1"},
				"up": {"uv": [1, 1, 3, 3], "texture": "#1"},
				"down": {"uv": [11, 1, 13, 3], "texture": "#1"}
			}
		}
	],
	"display": {
		"thirdperson_righthand": {
			"translation": [0, 0, -0.25],
			"scale": [0.23, 0.23, 0.23]
		},
		"firstperson_righthand": {
			"translation": [-0.25, 3.25, 0],
			"scale": [0.33, 0.33, 0.33]
		},
		"ground": {
			"translation": [0, -2.75, 0],
			"scale": [0.18, 0.18, 0.18]
		},
		"gui": {
			"rotation": [27, 27, 0],
			"scale": [0.65, 0.65, 0.65]
		},
		"fixed": {
			"translation": [0, 0, -1],
			"scale": [0.63, 0.63, 0.63]
		}
	}
}