{
	"textures": {
		"color": "blocks/concrete_white",
		"1": "blocks/glass"
	},
	"elements": [
		{
			"name": "west_color",
			"from": [0, 6.5, 6.5],
			"to": [3, 9.5, 9.5],
			"faces": {
				"north": {"uv": [3, 3, 6, 6], "texture": "#color", "tintindex": 0},
				"south": {"uv": [3, 3, 6, 6], "texture": "#color", "tintindex": 0},
				"west": {"uv": [3, 3, 6, 6], "texture": "#color", "tintindex": 0},
				"up": {"uv": [3, 3, 6, 6], "texture": "#color", "tintindex": 0},
				"down": {"uv": [3, 3, 6, 6], "texture": "#color", "tintindex": 0}
			}
		},
		{
			"name": "east_color",
			"from": [13, 6.5, 6.5],
			"to": [16, 9.5, 9.5],
			"faces": {
				"north": {"uv": [3, 3, 6, 6], "texture": "#color", "tintindex": 0},
				"east": {"uv": [3, 3, 6, 6], "texture": "#color", "tintindex": 0},
				"south": {"uv": [3, 3, 6, 6], "texture": "#color", "tintindex": 0},
				"up": {"uv": [3, 3, 6, 6], "texture": "#color", "tintindex": 0},
				"down": {"uv": [3, 3, 6, 6], "texture": "#color", "tintindex": 0}
			}
		},
		{
			"name": "glass",
			"from": [3, 6.5, 6.5],
			"to": [13, 9.5, 9.5],
			"faces": {
				"north": {"uv": [5, 5, 15, 8], "texture": "#1"},
				"south": {"uv": [5, 5, 15, 8], "texture": "#1"},
				"up": {"uv": [5, 1, 15, 4], "texture": "#1"},
				"down": {"uv": [1, 11, 11, 14], "texture": "#1"}
			}
		},
		{
			"name": "icon",
			"from": [7, 7, 8],
			"to": [9, 9, 8],
			"faces": {
				"north": {"uv": [0, 0, 16, 16], "texture": "#icon"},
				"south": {"uv": [0, 0, 16, 16], "texture": "#icon"}
			}
		}
	],
	"display": {
		"thirdperson_righthand": {
			"scale": [0.25, 0.25, 0.25],
			"rotation": [70, 0, 0]
		},
		"thirdperson_lefthand": {
			"scale": [0.25, 0.25, 0.25],
			"rotation": [70, 0, 0]
		},
		"firstperson_righthand": {
			"scale": [0.3, 0.3, 0.3],
			"rotation": [0, -30, 0],
			"translation": [-0.5, 3.5, 2.5]
		},
		"firstperson_lefthand": {
			"scale": [0.3, 0.3, 0.3],
			"rotation": [0, -30, 0],
			"translation": [-0.5, 3.5, 2.5]
		},
		"ground": {
			"scale": [0.3, 0.3, 0.3],
			"rotation": [90, 0, 0]
		},
		"fixed": {
			"scale": [0.7, 0.7, 0.7],
			"translation": [0, 0, -0.75]
		},
		"gui": {
			"scale": [0.9, 0.9, 0.9]
		}
	}
}